{
   "pagination": {
      "total_results": 4,
      "total_pages": 2,
      "first": {
         "href": "https://api.sys.domain.com/v3/audit_events?order_by=-created_at&page=1&per_page=2&types=audit.app.update%2Caudit.app.create%2Caudit.app.restage"
      },
      "last": {
         "href": "https://api.sys.domain.com/v3/audit_events?order_by=-created_at&page=2&per_page=2&types=audit.app.update%2Caudit.app.create%2Caudit.app.restage"
      },
      "next": null,
      "previous": {
         "href": "https://api.sys.domain.com/v3/audit_events?order_by=-created_at&page=1&per_page=2&types=audit.app.update%2Caudit.app.create%2Caudit.app.restage"
      }
   },
   "resources": [
      {
         "guid": "b191ba54-0a34-4bdc-bf84-a084c60aa689",
         "created_at": "2020-06-08T00:00:00Z",
         "updated_at": "2020-06-08T00:00:00Z",
         "type": "audit.app.create",
         "actor": {
            "guid": "7e84e3d9-6f17-4bab-8c1e-7b2d9521c287",
            "type": "user",
            "name": "admin"
         },
         "target": {
            "guid": "1d386537-c90b-46ca-b14c-6d73ac0feab1",
            "type": "app",
            "name": "no space or org in this event"
         },
         "data": {},
         "links": {
            "self": {
               "href": "https://api.sys.domain.com/v3/audit_events/89849843-c1a9-4b09-8e11-6c3dbde866a9"
            }
         }
      },
      {
         "guid": "bad_event",
         "created_at": "not a date",
         "updated_at": "not a date",
         "data": {},
         "space": {
            "guid": "fe712d4e-91a9-46f2-b82c-fa26da40dc53"
         },
         "organization": {
            "guid": "7b6fdcb8-c2c2-4b2c-9c9a-682de9cf607f"
         },
         "links": {
            "self": {
               "href": "https://api.sys.domain.com/v3/audit_events/a1f89a58-6a97-417f-a941-74be37a24b24"
            }
         }
      },
      {
         "guid": "e0f31ae8-3ae9-467c-989c-ef3d1e9b58ae",
         "created_at": "2020-06-07T23:50:00Z",
         "updated_at": "2020-06-07T23:50:00Z",
         "type": "audit.app.create",
         "actor": {
            "guid": "7e84e3d9-6f17-4bab-8c1e-7b2d9521c287",
            "type": "user",
            "name": "admin"
         },
         "target": {
            "guid": "1d386537-c90b-46ca-b14c-6d73ac0feab1",
            "type": "app",
            "name": "hello-datadog-cf-ruby-full"
         },
         "data": {},
         "space": {
            "guid": "fe712d4e-91a9-46f2-b82c-fa26da40dc53"
         },
         "organization": {
            "guid": "7b6fdcb8-c2c2-4b2c-9c9a-682de9cf607f"
         },
         "links": {
            "self": {
               "href": "https://api.sys.domain.com/v3/audit_events/a1f89a58-6a97-417f-a941-74be37a24b24"
            }
         }
      }
   ]
}