{
   "pagination": {
      "total_results": 4,
      "total_pages": 2,
      "first": {
         "href": "https://api.sys.domain.com/v3/audit_events?order_by=-created_at&page=0&per_page=1&types=audit.app.update%2Caudit.app.create%2Caudit.app.restage"
      },
      "last": {
         "href": "https://api.sys.domain.com/v3/audit_events?order_by=-created_at&page=1&per_page=1&types=audit.app.update%2Caudit.app.create%2Caudit.app.restage"
      },
      "next": {
         "href": "https://api.sys.domain.com/v3/audit_events?order_by=-created_at&page=1&per_page=1&types=audit.app.update%2Caudit.app.create%2Caudit.app.restage"
      },
      "previous": null
   },
   "resources": [
      {
         "guid": "9f741cfe-5488-496d-ba44-7cd814466eb0",
         "created_at": "2020-06-08T00:00:03Z",
         "updated_at": "2020-06-08T00:00:03Z",
         "type": "audit.app.restage",
         "actor": {
            "guid": "7e84e3d9-6f17-4bab-8c1e-7b2d9521c287",
            "type": "user",
            "name": "admin"
         },
         "target": {
            "guid": "1d386537-c90b-46ca-b14c-6d73ac0feab1",
            "type": "app",
            "name": "hello-datadog-cf-ruby-full"
         },
         "data": {},
         "space": {
            "guid": "fe712d4e-91a9-46f2-b82c-fa26da40dc53"
         },
         "organization": {
            "guid": "7b6fdcb8-c2c2-4b2c-9c9a-682de9cf607f"
         },
         "links": {
            "self": {
               "href": "https://api.sys.domain.com/v3/audit_events/9f741cfe-5488-496d-ba44-7cd814466eb0"
            }
         }
      },
      {
         "guid": "89849843-c1a9-4b09-8e11-6c3dbde866a9",
         "created_at": "2020-06-08T00:00:02Z",
         "updated_at": "2020-06-08T00:00:02Z",
         "type": "audit.app.restage",
         "actor": {
            "guid": "7e84e3d9-6f17-4bab-8c1e-7b2d9521c287",
            "type": "user",
            "name": "admin"
         },
         "target": {
            "guid": "1d386537-c90b-46ca-b14c-6d73ac0feab1",
            "type": "app",
            "name": "hello-datadog-cf-ruby-full"
         },
         "data": {},
         "space": {
            "guid": "fe712d4e-91a9-46f2-b82c-fa26da40dc53"
         },
         "organization": {
            "guid": "7b6fdcb8-c2c2-4b2c-9c9a-682de9cf607f"
         },
         "links": {
            "self": {
               "href": "https://api.sys.domain.com/v3/audit_events/89849843-c1a9-4b09-8e11-6c3dbde866a9"
            }
         }
      }
   ]
}